<?xml version="1.0" encoding="utf-8" standalone="no"?>
<!DOCTYPE svg PUBLIC "-//W3C//DTD SVG 1.1//EN"
  "http://www.w3.org/Graphics/SVG/1.1/DTD/svg11.dtd">
<svg xmlns:xlink="http://www.w3.org/1999/xlink" width="288pt" height="288pt" viewBox="0 0 288 288" xmlns="http://www.w3.org/2000/svg" version="1.1">
 <metadata>
  <rdf:RDF xmlns:dc="http://purl.org/dc/elements/1.1/" xmlns:cc="http://creativecommons.org/ns#" xmlns:rdf="http://www.w3.org/1999/02/22-rdf-syntax-ns#">
   <cc:Work>
    <dc:type rdf:resource="http://purl.org/dc/dcmitype/StillImage"/>
    <dc:date>2023-03-06T14:18:32.079066</dc:date>
    <dc:format>image/svg+xml</dc:format>
    <dc:creator>
     <cc:Agent>
      <dc:title>Matplotlib v3.6.2, https://matplotlib.org/</dc:title>
     </cc:Agent>
    </dc:creator>
   </cc:Work>
  </rdf:RDF>
 </metadata>
 <defs>
  <style type="text/css">*{stroke-linejoin: round; stroke-linecap: butt}</style>
 </defs>
 <g id="figure_1">
  <g id="patch_1">
   <path d="M 0 288 
L 288 288 
L 288 0 
L 0 0 
L 0 288 
z
" style="fill: none"/>
  </g>
  <g id="axes_1">
   <g id="patch_2">
    <path d="M 36 252 
L 259.2 252 
L 259.2 34.56 
L 36 34.56 
z
" style="fill: #ffffff"/>
   </g>
   <g id="matplotlib.axis_1">
    <g id="xtick_1">
     <g id="line2d_1">
      <defs>
       <path id="mdefd139aef" d="M 0 0 
L 0 3.5 
" style="stroke: #000000; stroke-width: 0.8"/>
      </defs>
      <g>
       <use xlink:href="#mdefd139aef" x="36" y="252" style="stroke: #000000; stroke-width: 0.8"/>
      </g>
     </g>
     <g id="text_1">
      <!-- −1 -->
      <g transform="translate(28.628906 266.598437) scale(0.1 -0.1)">
       <defs>
        <path id="DejaVuSans-2212" d="M 678 2272 
L 4684 2272 
L 4684 1741 
L 678 1741 
L 678 2272 
z
" transform="scale(0.015625)"/>
        <path id="DejaVuSans-31" d="M 794 531 
L 1825 531 
L 1825 4091 
L 703 3866 
L 703 4441 
L 1819 4666 
L 2450 4666 
L 2450 531 
L 3481 531 
L 3481 0 
L 794 0 
L 794 531 
z
" transform="scale(0.015625)"/>
       </defs>
       <use xlink:href="#DejaVuSans-2212"/>
       <use xlink:href="#DejaVuSans-31" x="83.789062"/>
      </g>
     </g>
    </g>
    <g id="xtick_2">
     <g id="line2d_2">
      <g>
       <use xlink:href="#mdefd139aef" x="147.6" y="252" style="stroke: #000000; stroke-width: 0.8"/>
      </g>
     </g>
     <g id="text_2">
      <!-- 0 -->
      <g transform="translate(144.41875 266.598437) scale(0.1 -0.1)">
       <defs>
        <path id="DejaVuSans-30" d="M 2034 4250 
Q 1547 4250 1301 3770 
Q 1056 3291 1056 2328 
Q 1056 1369 1301 889 
Q 1547 409 2034 409 
Q 2525 409 2770 889 
Q 3016 1369 3016 2328 
Q 3016 3291 2770 3770 
Q 2525 4250 2034 4250 
z
M 2034 4750 
Q 2819 4750 3233 4129 
Q 3647 3509 3647 2328 
Q 3647 1150 3233 529 
Q 2819 -91 2034 -91 
Q 1250 -91 836 529 
Q 422 1150 422 2328 
Q 422 3509 836 4129 
Q 1250 4750 2034 4750 
z
" transform="scale(0.015625)"/>
       </defs>
       <use xlink:href="#DejaVuSans-30"/>
      </g>
     </g>
    </g>
    <g id="xtick_3">
     <g id="line2d_3">
      <g>
       <use xlink:href="#mdefd139aef" x="259.2" y="252" style="stroke: #000000; stroke-width: 0.8"/>
      </g>
     </g>
     <g id="text_3">
      <!-- 1 -->
      <g transform="translate(256.01875 266.598437) scale(0.1 -0.1)">
       <use xlink:href="#DejaVuSans-31"/>
      </g>
     </g>
    </g>
   </g>
   <g id="matplotlib.axis_2">
    <g id="ytick_1">
     <g id="line2d_4">
      <defs>
       <path id="m59b28e2412" d="M 0 0 
L -3.5 0 
" style="stroke: #000000; stroke-width: 0.8"/>
      </defs>
      <g>
       <use xlink:href="#m59b28e2412" x="36" y="242.116364" style="stroke: #000000; stroke-width: 0.8"/>
      </g>
     </g>
     <g id="text_4">
      <!-- 0.00 -->
      <g transform="translate(6.734375 245.915582) scale(0.1 -0.1)">
       <defs>
        <path id="DejaVuSans-2e" d="M 684 794 
L 1344 794 
L 1344 0 
L 684 0 
L 684 794 
z
" transform="scale(0.015625)"/>
       </defs>
       <use xlink:href="#DejaVuSans-30"/>
       <use xlink:href="#DejaVuSans-2e" x="63.623047"/>
       <use xlink:href="#DejaVuSans-30" x="95.410156"/>
       <use xlink:href="#DejaVuSans-30" x="159.033203"/>
      </g>
     </g>
    </g>
    <g id="ytick_2">
     <g id="line2d_5">
      <g>
       <use xlink:href="#m59b28e2412" x="36" y="192.698182" style="stroke: #000000; stroke-width: 0.8"/>
      </g>
     </g>
     <g id="text_5">
      <!-- 0.25 -->
      <g transform="translate(6.734375 196.497401) scale(0.1 -0.1)">
       <defs>
        <path id="DejaVuSans-32" d="M 1228 531 
L 3431 531 
L 3431 0 
L 469 0 
L 469 531 
Q 828 903 1448 1529 
Q 2069 2156 2228 2338 
Q 2531 2678 2651 2914 
Q 2772 3150 2772 3378 
Q 2772 3750 2511 3984 
Q 2250 4219 1831 4219 
Q 1534 4219 1204 4116 
Q 875 4013 500 3803 
L 500 4441 
Q 881 4594 1212 4672 
Q 1544 4750 1819 4750 
Q 2544 4750 2975 4387 
Q 3406 4025 3406 3419 
Q 3406 3131 3298 2873 
Q 3191 2616 2906 2266 
Q 2828 2175 2409 1742 
Q 1991 1309 1228 531 
z
" transform="scale(0.015625)"/>
        <path id="DejaVuSans-35" d="M 691 4666 
L 3169 4666 
L 3169 4134 
L 1269 4134 
L 1269 2991 
Q 1406 3038 1543 3061 
Q 1681 3084 1819 3084 
Q 2600 3084 3056 2656 
Q 3513 2228 3513 1497 
Q 3513 744 3044 326 
Q 2575 -91 1722 -91 
Q 1428 -91 1123 -41 
Q 819 9 494 109 
L 494 744 
Q 775 591 1075 516 
Q 1375 441 1709 441 
Q 2250 441 2565 725 
Q 2881 1009 2881 1497 
Q 2881 1984 2565 2268 
Q 2250 2553 1709 2553 
Q 1456 2553 1204 2497 
Q 953 2441 691 2322 
L 691 4666 
z
" transform="scale(0.015625)"/>
       </defs>
       <use xlink:href="#DejaVuSans-30"/>
       <use xlink:href="#DejaVuSans-2e" x="63.623047"/>
       <use xlink:href="#DejaVuSans-32" x="95.410156"/>
       <use xlink:href="#DejaVuSans-35" x="159.033203"/>
      </g>
     </g>
    </g>
    <g id="ytick_3">
     <g id="line2d_6">
      <g>
       <use xlink:href="#m59b28e2412" x="36" y="143.28" style="stroke: #000000; stroke-width: 0.8"/>
      </g>
     </g>
     <g id="text_6">
      <!-- 0.50 -->
      <g transform="translate(6.734375 147.079219) scale(0.1 -0.1)">
       <use xlink:href="#DejaVuSans-30"/>
       <use xlink:href="#DejaVuSans-2e" x="63.623047"/>
       <use xlink:href="#DejaVuSans-35" x="95.410156"/>
       <use xlink:href="#DejaVuSans-30" x="159.033203"/>
      </g>
     </g>
    </g>
    <g id="ytick_4">
     <g id="line2d_7">
      <g>
       <use xlink:href="#m59b28e2412" x="36" y="93.861818" style="stroke: #000000; stroke-width: 0.8"/>
      </g>
     </g>
     <g id="text_7">
      <!-- 0.75 -->
      <g transform="translate(6.734375 97.661037) scale(0.1 -0.1)">
       <defs>
        <path id="DejaVuSans-37" d="M 525 4666 
L 3525 4666 
L 3525 4397 
L 1831 0 
L 1172 0 
L 2766 4134 
L 525 4134 
L 525 4666 
z
" transform="scale(0.015625)"/>
       </defs>
       <use xlink:href="#DejaVuSans-30"/>
       <use xlink:href="#DejaVuSans-2e" x="63.623047"/>
       <use xlink:href="#DejaVuSans-37" x="95.410156"/>
       <use xlink:href="#DejaVuSans-35" x="159.033203"/>
      </g>
     </g>
    </g>
    <g id="ytick_5">
     <g id="line2d_8">
      <g>
       <use xlink:href="#m59b28e2412" x="36" y="44.443636" style="stroke: #000000; stroke-width: 0.8"/>
      </g>
     </g>
     <g id="text_8">
      <!-- 1.00 -->
      <g transform="translate(6.734375 48.242855) scale(0.1 -0.1)">
       <use xlink:href="#DejaVuSans-31"/>
       <use xlink:href="#DejaVuSans-2e" x="63.623047"/>
       <use xlink:href="#DejaVuSans-30" x="95.410156"/>
       <use xlink:href="#DejaVuSans-30" x="159.033203"/>
      </g>
     </g>
    </g>
   </g>
   <g id="line2d_9">
    <path d="M 36 44.443636 
L 37.121608 44.6432 
L 38.243216 45.240683 
L 39.364824 46.232473 
L 40.486432 47.61259 
L 41.60804 49.372749 
L 42.729648 51.502438 
L 43.851256 53.989024 
L 44.972864 56.817882 
L 47.21608 63.434805 
L 49.459296 71.202126 
L 51.702513 79.947531 
L 53.945729 89.483807 
L 57.310553 104.842832 
L 68.526633 157.583593 
L 71.891457 171.849843 
L 74.134673 180.620772 
L 76.377889 188.730023 
L 78.621106 196.142928 
L 80.864322 202.845142 
L 83.107538 208.840258 
L 85.350754 214.147088 
L 87.59397 218.796792 
L 89.837186 222.82999 
L 92.080402 226.294005 
L 94.323618 229.240319 
L 96.566834 231.722323 
L 98.81005 233.79342 
L 101.053266 235.50547 
L 103.296482 236.907608 
L 105.539698 238.045389 
L 107.782915 238.960243 
L 110.026131 239.689199 
L 113.390955 240.504093 
L 116.755779 241.064692 
L 121.242211 241.538018 
L 126.850251 241.854647 
L 134.701508 242.037135 
L 150.40402 242.110968 
L 259.2 242.116364 
L 259.2 242.116364 
" clip-path="url(#p71c3a2fcaf)" style="fill: none; stroke: #f77189; stroke-width: 1.5; stroke-linecap: square"/>
   </g>
   <g id="line2d_10">
    <path d="M 36 121.479415 
L 41.60804 95.051662 
L 44.972864 80.458355 
L 47.21608 71.663995 
L 49.459296 63.837649 
L 51.702513 57.152629 
L 52.824121 54.286725 
L 53.945729 51.761351 
L 55.067337 49.591346 
L 56.188945 47.78957 
L 57.310553 46.366774 
L 58.432161 45.331499 
L 59.553769 44.689982 
L 60.675377 44.446101 
L 61.796985 44.601333 
L 62.918593 45.154737 
L 64.040201 46.102967 
L 65.161809 47.440305 
L 66.283417 49.158717 
L 67.405025 51.247932 
L 68.526633 53.69555 
L 69.648241 56.487159 
L 71.891457 63.035517 
L 74.134673 70.743279 
L 76.377889 79.439149 
L 78.621106 88.93657 
L 81.98593 104.257862 
L 93.20201 157.032604 
L 96.566834 171.344201 
L 98.81005 180.150435 
L 101.053266 188.297553 
L 103.296482 195.749697 
L 105.539698 202.491454 
L 107.782915 208.525488 
L 110.026131 213.869839 
L 112.269347 218.555059 
L 114.512563 222.621316 
L 116.755779 226.11563 
L 118.998995 229.089312 
L 121.242211 231.595703 
L 123.485427 233.688247 
L 125.728643 235.418926 
L 127.971859 236.83705 
L 130.215075 237.98839 
L 132.458291 238.914617 
L 134.701508 239.653005 
L 138.066332 240.478949 
L 141.431156 241.047571 
L 145.917588 241.528075 
L 151.525628 241.849848 
L 159.376884 242.035555 
L 175.079397 242.110843 
L 259.2 242.116364 
L 259.2 242.116364 
" clip-path="url(#p71c3a2fcaf)" style="fill: none; stroke: #dc8932; stroke-width: 1.5; stroke-linecap: square"/>
   </g>
   <g id="line2d_11">
    <path d="M 36 214.695501 
L 38.243216 209.463422 
L 40.486432 203.545962 
L 42.729648 196.922794 
L 44.972864 189.588497 
L 47.21608 181.555296 
L 49.459296 172.855497 
L 52.824121 158.681134 
L 56.188945 143.416865 
L 62.918593 111.331431 
L 67.405025 90.583761 
L 69.648241 80.97159 
L 71.891457 72.128856 
L 74.134673 64.244021 
L 76.377889 57.491375 
L 77.499497 54.588633 
L 78.621106 52.024654 
L 79.742714 49.814491 
L 80.864322 47.97123 
L 81.98593 46.505862 
L 83.107538 45.427178 
L 84.229146 44.741676 
L 85.350754 44.453496 
L 86.472362 44.564384 
L 87.59397 45.073668 
L 88.715578 45.978269 
L 89.837186 47.272727 
L 90.958794 48.949264 
L 92.080402 50.997854 
L 93.20201 53.406325 
L 94.323618 56.160484 
L 96.566834 62.639813 
L 98.81005 70.287485 
L 101.053266 78.933244 
L 103.296482 88.391205 
L 106.661307 103.673852 
L 118.998995 161.398282 
L 122.363819 175.336265 
L 124.607035 183.855377 
L 126.850251 191.69678 
L 129.093467 198.833966 
L 131.336683 205.259871 
L 133.579899 210.984341 
L 135.823116 216.031336 
L 138.066332 220.436032 
L 140.309548 224.241976 
L 142.552764 227.498394 
L 144.79598 230.257759 
L 147.039196 232.573675 
L 149.282412 234.499108 
L 151.525628 236.08498 
L 153.768844 237.379116 
L 156.01206 238.425519 
L 158.255276 239.263926 
L 161.620101 240.207515 
L 164.984925 240.861978 
L 168.349749 241.306906 
L 172.836181 241.677568 
L 179.565829 241.95153 
L 189.660302 242.083251 
L 217.700503 242.116201 
L 259.2 242.116364 
L 259.2 242.116364 
" clip-path="url(#p71c3a2fcaf)" style="fill: none; stroke: #ae9d31; stroke-width: 1.5; stroke-linecap: square"/>
   </g>
   <g id="line2d_12">
    <path d="M 36 239.794969 
L 38.243216 239.093711 
L 40.486432 238.21229 
L 42.729648 237.114424 
L 44.972864 235.759404 
L 47.21608 234.102329 
L 49.459296 232.094614 
L 51.702513 229.684778 
L 53.945729 226.81958 
L 56.188945 223.445501 
L 58.432161 219.510595 
L 60.675377 214.966678 
L 62.918593 209.771823 
L 65.161809 203.893098 
L 67.405025 197.309428 
L 69.648241 190.014492 
L 71.891457 182.019466 
L 74.134673 173.355486 
L 77.499497 159.227649 
L 80.864322 143.997315 
L 86.472362 117.290936 
L 90.958794 96.1843 
L 94.323618 81.487201 
L 96.566834 72.596677 
L 98.81005 64.653893 
L 101.053266 57.834097 
L 102.174874 54.894724 
L 103.296482 52.292327 
L 104.41809 50.042168 
L 105.539698 48.157557 
L 106.661307 46.649727 
L 107.782915 45.527714 
L 108.904523 44.798277 
L 110.026131 44.46582 
L 111.147739 44.532356 
L 112.269347 44.997482 
L 113.390955 45.858385 
L 114.512563 47.109868 
L 115.634171 48.744407 
L 116.755779 50.75222 
L 117.877387 53.12137 
L 118.998995 55.83788 
L 121.242211 62.24772 
L 123.485427 69.834777 
L 125.728643 78.429847 
L 127.971859 87.847747 
L 131.336683 103.090835 
L 143.674372 160.857972 
L 147.039196 174.843968 
L 149.282412 183.399529 
L 151.525628 191.279469 
L 153.768844 198.456132 
L 156.01206 204.921438 
L 158.255276 210.684365 
L 160.498492 215.768165 
L 162.741709 220.207467 
L 164.984925 224.045425 
L 167.228141 227.331015 
L 169.471357 230.11659 
L 171.714573 232.45574 
L 173.957789 234.401505 
L 176.201005 236.004955 
L 178.444221 237.314107 
L 180.687437 238.373189 
L 182.930653 239.222185 
L 186.295477 240.178276 
L 189.660302 240.841907 
L 193.025126 241.293399 
L 197.511558 241.669845 
L 203.119598 241.917675 
L 212.092462 242.067399 
L 233.403015 242.115316 
L 259.2 242.11636 
L 259.2 242.11636 
" clip-path="url(#p71c3a2fcaf)" style="fill: none; stroke: #77ab31; stroke-width: 1.5; stroke-linecap: square"/>
   </g>
   <g id="line2d_13">
    <path d="M 36 242.043168 
L 44.972864 241.829829 
L 50.580905 241.486719 
L 55.067337 240.976538 
L 58.432161 240.374822 
L 61.796985 239.503402 
L 64.040201 238.726264 
L 66.283417 237.75339 
L 68.526633 236.546517 
L 70.769849 235.063027 
L 73.013065 233.256305 
L 75.256281 231.07636 
L 77.499497 228.470768 
L 79.742714 225.385961 
L 81.98593 221.76887 
L 84.229146 217.568929 
L 86.472362 212.740414 
L 88.715578 207.245045 
L 90.958794 201.054801 
L 93.20201 194.154815 
L 95.445226 186.546214 
L 97.688442 178.248767 
L 99.931658 169.303146 
L 103.296482 154.814274 
L 106.661307 139.328228 
L 116.755779 91.690795 
L 118.998995 82.005156 
L 121.242211 73.067427 
L 123.485427 65.067236 
L 125.728643 58.180771 
L 126.850251 55.204977 
L 127.971859 52.564351 
L 129.093467 50.27436 
L 130.215075 48.348539 
L 131.336683 46.798357 
L 132.458291 45.6331 
L 133.579899 44.859781 
L 134.701508 44.483072 
L 135.823116 44.505252 
L 136.944724 44.926185 
L 138.066332 45.743326 
L 139.18794 46.951741 
L 140.309548 48.54416 
L 141.431156 50.511049 
L 142.552764 52.840705 
L 143.674372 55.51937 
L 145.917588 61.859267 
L 148.160804 69.385183 
L 150.40402 77.928993 
L 152.647236 87.306227 
L 156.01206 102.508845 
L 168.349749 160.316086 
L 171.714573 174.349732 
L 173.957789 182.94159 
L 176.201005 190.859981 
L 178.444221 198.076097 
L 180.687437 204.580833 
L 182.930653 210.38229 
L 185.173869 215.503003 
L 187.417085 219.977045 
L 189.660302 223.847168 
L 191.903518 227.162092 
L 194.146734 229.974043 
L 196.38995 232.33659 
L 198.633166 234.302847 
L 200.876382 235.924022 
L 203.119598 237.248326 
L 205.362814 238.320212 
L 207.60603 239.179905 
L 210.970854 240.14864 
L 214.335678 240.821546 
L 217.700503 241.279689 
L 222.186935 241.661999 
L 227.794975 241.913957 
L 236.767839 242.066393 
L 258.078392 242.11529 
L 259.2 242.115504 
L 259.2 242.115504 
" clip-path="url(#p71c3a2fcaf)" style="fill: none; stroke: #33b07a; stroke-width: 1.5; stroke-linecap: square"/>
   </g>
   <g id="line2d_14">
    <path d="M 36 242.115504 
L 62.918593 242.014155 
L 70.769849 241.785564 
L 76.377889 241.395945 
L 80.864322 240.821546 
L 84.229146 240.14864 
L 87.59397 239.179905 
L 89.837186 238.320212 
L 92.080402 237.248326 
L 94.323618 235.924022 
L 96.566834 234.302847 
L 98.81005 232.33659 
L 101.053266 229.974043 
L 103.296482 227.162092 
L 105.539698 223.847168 
L 107.782915 219.977045 
L 110.026131 215.503003 
L 112.269347 210.38229 
L 114.512563 204.580833 
L 116.755779 198.076097 
L 118.998995 190.859981 
L 121.242211 182.94159 
L 123.485427 174.349732 
L 126.850251 160.316086 
L 130.215075 145.155249 
L 135.823116 118.486851 
L 140.309548 97.32266 
L 143.674372 82.525421 
L 145.917588 73.541074 
L 148.160804 65.484022 
L 150.40402 58.531371 
L 151.525628 55.51937 
L 152.647236 52.840705 
L 153.768844 50.511049 
L 154.890452 48.54416 
L 156.01206 46.951741 
L 157.133668 45.743326 
L 158.255276 44.926185 
L 159.376884 44.505252 
L 160.498492 44.483072 
L 161.620101 44.859781 
L 162.741709 45.6331 
L 163.863317 46.798357 
L 164.984925 48.348539 
L 166.106533 50.27436 
L 167.228141 52.564351 
L 168.349749 55.204977 
L 169.471357 58.180771 
L 171.714573 65.067236 
L 173.957789 73.067427 
L 176.201005 82.005156 
L 179.565829 96.752782 
L 184.052261 117.888783 
L 190.78191 149.744133 
L 194.146734 164.606132 
L 197.511558 178.248767 
L 199.754774 186.546214 
L 201.99799 194.154815 
L 204.241206 201.054801 
L 206.484422 207.245045 
L 208.727638 212.740414 
L 210.970854 217.568929 
L 213.21407 221.76887 
L 215.457286 225.385961 
L 217.700503 228.470768 
L 219.943719 231.07636 
L 222.186935 233.256305 
L 224.430151 235.063027 
L 226.673367 236.546517 
L 228.916583 237.75339 
L 231.159799 238.726264 
L 233.403015 239.503402 
L 236.767839 240.374822 
L 240.132663 240.976538 
L 244.619095 241.486719 
L 250.227136 241.829829 
L 258.078392 242.028937 
L 259.2 242.043168 
L 259.2 242.043168 
" clip-path="url(#p71c3a2fcaf)" style="fill: none; stroke: #36ada4; stroke-width: 1.5; stroke-linecap: square"/>
   </g>
   <g id="line2d_15">
    <path d="M 36 242.11636 
L 87.59397 242.016122 
L 95.445226 241.791423 
L 101.053266 241.40791 
L 105.539698 240.841907 
L 108.904523 240.178276 
L 112.269347 239.222185 
L 114.512563 238.373189 
L 116.755779 237.314107 
L 118.998995 236.004955 
L 121.242211 234.401505 
L 123.485427 232.45574 
L 125.728643 230.11659 
L 127.971859 227.331015 
L 130.215075 224.045425 
L 132.458291 220.207467 
L 134.701508 215.768165 
L 136.944724 210.684365 
L 139.18794 204.921438 
L 141.431156 198.456132 
L 143.674372 191.279469 
L 145.917588 183.399529 
L 148.160804 174.843968 
L 151.525628 160.857972 
L 154.890452 145.732687 
L 160.498492 119.085108 
L 164.984925 97.893902 
L 168.349749 83.047962 
L 170.592965 74.017586 
L 172.836181 65.904221 
L 175.079397 58.885872 
L 176.201005 55.83788 
L 177.322613 53.12137 
L 178.444221 50.75222 
L 179.565829 48.744407 
L 180.687437 47.109868 
L 181.809045 45.858385 
L 182.930653 44.997482 
L 184.052261 44.532356 
L 185.173869 44.46582 
L 186.295477 44.798277 
L 187.417085 45.527714 
L 188.538693 46.649727 
L 189.660302 48.157557 
L 190.78191 50.042168 
L 191.903518 52.292327 
L 193.025126 54.894724 
L 194.146734 57.834097 
L 196.38995 64.653893 
L 198.633166 72.596677 
L 200.876382 81.487201 
L 204.241206 96.1843 
L 208.727638 117.290936 
L 215.457286 149.174503 
L 218.822111 164.075617 
L 222.186935 177.768312 
L 224.430151 186.103038 
L 226.673367 193.750611 
L 228.916583 200.690155 
L 231.159799 206.919574 
L 233.403015 212.45292 
L 235.646231 217.317561 
L 237.889447 221.551279 
L 240.132663 225.199458 
L 242.375879 228.312458 
L 244.619095 230.943263 
L 246.862312 233.145463 
L 249.105528 234.971581 
L 251.348744 236.471771 
L 253.59196 237.692855 
L 255.835176 238.677684 
L 258.078392 239.464768 
L 259.2 239.794969 
L 259.2 239.794969 
" clip-path="url(#p71c3a2fcaf)" style="fill: none; stroke: #38a9c5; stroke-width: 1.5; stroke-linecap: square"/>
   </g>
   <g id="line2d_16">
    <path d="M 36 242.116364 
L 112.269347 242.018055 
L 120.120603 241.797186 
L 125.728643 241.419693 
L 130.215075 240.861978 
L 133.579899 240.207515 
L 136.944724 239.263926 
L 139.18794 238.425519 
L 141.431156 237.379116 
L 143.674372 236.08498 
L 145.917588 234.499108 
L 148.160804 232.573675 
L 150.40402 230.257759 
L 152.647236 227.498394 
L 154.890452 224.241976 
L 157.133668 220.436032 
L 159.376884 216.031336 
L 161.620101 210.984341 
L 163.863317 205.259871 
L 166.106533 198.833966 
L 168.349749 191.69678 
L 170.592965 183.855377 
L 172.836181 175.336265 
L 176.201005 161.398282 
L 179.565829 146.309076 
L 185.173869 119.683523 
L 189.660302 98.466472 
L 193.025126 83.572747 
L 195.268342 74.496932 
L 197.511558 66.327805 
L 199.754774 59.24425 
L 200.876382 56.160484 
L 201.99799 53.406325 
L 203.119598 50.997854 
L 204.241206 48.949264 
L 205.362814 47.272727 
L 206.484422 45.978269 
L 207.60603 45.073668 
L 208.727638 44.564384 
L 209.849246 44.453496 
L 210.970854 44.741676 
L 212.092462 45.427178 
L 213.21407 46.505862 
L 214.335678 47.97123 
L 215.457286 49.814491 
L 216.578894 52.024654 
L 217.700503 54.588633 
L 218.822111 57.491375 
L 221.065327 64.244021 
L 223.308543 72.128856 
L 225.551759 80.97159 
L 228.916583 95.617249 
L 233.403015 116.693339 
L 240.132663 148.603693 
L 243.497487 163.543432 
L 246.862312 177.28586 
L 249.105528 185.657736 
L 251.348744 193.344216 
L 253.59196 200.323313 
L 255.835176 206.591951 
L 258.078392 212.16336 
L 259.2 214.695501 
L 259.2 214.695501 
" clip-path="url(#p71c3a2fcaf)" style="fill: none; stroke: #6e9bf4; stroke-width: 1.5; stroke-linecap: square"/>
   </g>
   <g id="line2d_17">
    <path d="M 36 242.116364 
L 136.944724 242.019952 
L 144.79598 241.802854 
L 150.40402 241.431297 
L 154.890452 240.881764 
L 158.255276 240.236358 
L 161.620101 239.305136 
L 163.863317 238.477208 
L 166.106533 237.443363 
L 168.349749 236.164105 
L 170.592965 234.595663 
L 172.836181 232.690407 
L 175.079397 230.397561 
L 177.322613 227.664239 
L 179.565829 224.436831 
L 181.809045 220.662748 
L 184.052261 216.292522 
L 186.295477 211.282223 
L 188.538693 205.596136 
L 190.78191 199.209601 
L 193.025126 192.111914 
L 195.268342 184.309128 
L 197.511558 175.826613 
L 200.876382 161.936999 
L 204.241206 146.884393 
L 208.727638 125.669744 
L 214.335678 99.040338 
L 217.700503 84.099742 
L 219.943719 74.979079 
L 222.186935 66.754744 
L 224.430151 59.606479 
L 226.673367 53.69555 
L 227.794975 51.247932 
L 228.916583 49.158717 
L 230.038191 47.440305 
L 231.159799 46.102967 
L 232.281407 45.154737 
L 233.403015 44.601333 
L 234.524623 44.446101 
L 235.646231 44.689982 
L 236.767839 45.331499 
L 237.889447 46.366774 
L 239.011055 47.78957 
L 240.132663 49.591346 
L 241.254271 51.761351 
L 242.375879 54.286725 
L 243.497487 57.152629 
L 245.740704 63.837649 
L 247.98392 71.663995 
L 250.227136 80.458355 
L 252.470352 90.032882 
L 255.835176 105.428729 
L 259.2 121.479415 
L 259.2 121.479415 
" clip-path="url(#p71c3a2fcaf)" style="fill: none; stroke: #cc7af4; stroke-width: 1.5; stroke-linecap: square"/>
   </g>
   <g id="line2d_18">
    <path d="M 36 242.116364 
L 161.620101 242.021816 
L 169.471357 241.80843 
L 175.079397 241.442725 
L 179.565829 240.901269 
L 182.930653 240.264813 
L 186.295477 239.345819 
L 188.538693 238.528263 
L 190.78191 237.506852 
L 193.025126 236.242339 
L 195.268342 234.69118 
L 197.511558 232.805942 
L 199.754774 230.536002 
L 201.99799 227.828558 
L 204.241206 224.629998 
L 206.484422 220.887622 
L 208.727638 216.551731 
L 210.970854 211.578017 
L 213.21407 205.930235 
L 215.457286 199.583037 
L 217.700503 192.524866 
L 219.943719 184.760775 
L 222.186935 176.315001 
L 225.551759 162.474107 
L 228.916583 147.458616 
L 233.403015 126.267919 
L 240.132663 94.487573 
L 243.497487 79.947531 
L 245.740704 71.202126 
L 247.98392 63.434805 
L 250.227136 56.817882 
L 251.348744 53.989024 
L 252.470352 51.502438 
L 253.59196 49.372749 
L 254.713568 47.61259 
L 255.835176 46.232473 
L 256.956784 45.240683 
L 258.078392 44.6432 
L 259.2 44.443636 
L 259.2 44.443636 
" clip-path="url(#p71c3a2fcaf)" style="fill: none; stroke: #f565cc; stroke-width: 1.5; stroke-linecap: square"/>
   </g>
   <g id="patch_3">
    <path d="M 36 252 
L 36 34.56 
" style="fill: none; stroke: #000000; stroke-width: 0.8; stroke-linejoin: miter; stroke-linecap: square"/>
   </g>
   <g id="patch_4">
    <path d="M 259.2 252 
L 259.2 34.56 
" style="fill: none; stroke: #000000; stroke-width: 0.8; stroke-linejoin: miter; stroke-linecap: square"/>
   </g>
   <g id="patch_5">
    <path d="M 36 252 
L 259.2 252 
" style="fill: none; stroke: #000000; stroke-width: 0.8; stroke-linejoin: miter; stroke-linecap: square"/>
   </g>
   <g id="patch_6">
    <path d="M 36 34.56 
L 259.2 34.56 
" style="fill: none; stroke: #000000; stroke-width: 0.8; stroke-linejoin: miter; stroke-linecap: square"/>
   </g>
  </g>
 </g>
 <defs>
  <clipPath id="p71c3a2fcaf">
   <rect x="36" y="34.56" width="223.2" height="217.44"/>
  </clipPath>
 </defs>
</svg>
