<?xml version="1.0" encoding="utf-8" standalone="no"?>
<!DOCTYPE svg PUBLIC "-//W3C//DTD SVG 1.1//EN"
  "http://www.w3.org/Graphics/SVG/1.1/DTD/svg11.dtd">
<svg xmlns:xlink="http://www.w3.org/1999/xlink" width="288pt" height="288pt" viewBox="0 0 288 288" xmlns="http://www.w3.org/2000/svg" version="1.1">
 <metadata>
  <rdf:RDF xmlns:dc="http://purl.org/dc/elements/1.1/" xmlns:cc="http://creativecommons.org/ns#" xmlns:rdf="http://www.w3.org/1999/02/22-rdf-syntax-ns#">
   <cc:Work>
    <dc:type rdf:resource="http://purl.org/dc/dcmitype/StillImage"/>
    <dc:date>2023-02-20T22:45:28.611253</dc:date>
    <dc:format>image/svg+xml</dc:format>
    <dc:creator>
     <cc:Agent>
      <dc:title>Matplotlib v3.5.2, https://matplotlib.org/</dc:title>
     </cc:Agent>
    </dc:creator>
   </cc:Work>
  </rdf:RDF>
 </metadata>
 <defs>
  <style type="text/css">*{stroke-linejoin: round; stroke-linecap: butt}</style>
 </defs>
 <g id="figure_1">
  <g id="patch_1">
   <path d="M 0 288 
L 288 288 
L 288 0 
L 0 0 
z
" style="fill: #ffffff"/>
  </g>
  <g id="axes_1">
   <g id="patch_2">
    <path d="M 36 256.32 
L 259.2 256.32 
L 259.2 34.56 
L 36 34.56 
z
" style="fill: #ffffff"/>
   </g>
   <g id="matplotlib.axis_1">
    <g id="xtick_1">
     <g id="line2d_1">
      <defs>
       <path id="md9b9cb12a7" d="M 0 0 
L 0 3.5 
" style="stroke: #000000; stroke-width: 0.8"/>
      </defs>
      <g>
       <use xlink:href="#md9b9cb12a7" x="36" y="256.32" style="stroke: #000000; stroke-width: 0.8"/>
      </g>
     </g>
     <g id="text_1">
      <!-- −1 -->
      <g transform="translate(28.628906 270.918437)scale(0.1 -0.1)">
       <defs>
        <path id="DejaVuSans-2212" d="M 678 2272 
L 4684 2272 
L 4684 1741 
L 678 1741 
L 678 2272 
z
" transform="scale(0.015625)"/>
        <path id="DejaVuSans-31" d="M 794 531 
L 1825 531 
L 1825 4091 
L 703 3866 
L 703 4441 
L 1819 4666 
L 2450 4666 
L 2450 531 
L 3481 531 
L 3481 0 
L 794 0 
L 794 531 
z
" transform="scale(0.015625)"/>
       </defs>
       <use xlink:href="#DejaVuSans-2212"/>
       <use xlink:href="#DejaVuSans-31" x="83.789062"/>
      </g>
     </g>
    </g>
    <g id="xtick_2">
     <g id="line2d_2">
      <g>
       <use xlink:href="#md9b9cb12a7" x="147.6" y="256.32" style="stroke: #000000; stroke-width: 0.8"/>
      </g>
     </g>
     <g id="text_2">
      <!-- 0 -->
      <g transform="translate(144.41875 270.918437)scale(0.1 -0.1)">
       <defs>
        <path id="DejaVuSans-30" d="M 2034 4250 
Q 1547 4250 1301 3770 
Q 1056 3291 1056 2328 
Q 1056 1369 1301 889 
Q 1547 409 2034 409 
Q 2525 409 2770 889 
Q 3016 1369 3016 2328 
Q 3016 3291 2770 3770 
Q 2525 4250 2034 4250 
z
M 2034 4750 
Q 2819 4750 3233 4129 
Q 3647 3509 3647 2328 
Q 3647 1150 3233 529 
Q 2819 -91 2034 -91 
Q 1250 -91 836 529 
Q 422 1150 422 2328 
Q 422 3509 836 4129 
Q 1250 4750 2034 4750 
z
" transform="scale(0.015625)"/>
       </defs>
       <use xlink:href="#DejaVuSans-30"/>
      </g>
     </g>
    </g>
    <g id="xtick_3">
     <g id="line2d_3">
      <g>
       <use xlink:href="#md9b9cb12a7" x="259.2" y="256.32" style="stroke: #000000; stroke-width: 0.8"/>
      </g>
     </g>
     <g id="text_3">
      <!-- 1 -->
      <g transform="translate(256.01875 270.918437)scale(0.1 -0.1)">
       <use xlink:href="#DejaVuSans-31"/>
      </g>
     </g>
    </g>
   </g>
   <g id="matplotlib.axis_2">
    <g id="ytick_1">
     <g id="line2d_4">
      <defs>
       <path id="m3b1bc19222" d="M 0 0 
L -3.5 0 
" style="stroke: #000000; stroke-width: 0.8"/>
      </defs>
      <g>
       <use xlink:href="#m3b1bc19222" x="36" y="246.24" style="stroke: #000000; stroke-width: 0.8"/>
      </g>
     </g>
     <g id="text_4">
      <!-- −1.0 -->
      <g transform="translate(4.717187 250.039219)scale(0.1 -0.1)">
       <defs>
        <path id="DejaVuSans-2e" d="M 684 794 
L 1344 794 
L 1344 0 
L 684 0 
L 684 794 
z
" transform="scale(0.015625)"/>
       </defs>
       <use xlink:href="#DejaVuSans-2212"/>
       <use xlink:href="#DejaVuSans-31" x="83.789062"/>
       <use xlink:href="#DejaVuSans-2e" x="147.412109"/>
       <use xlink:href="#DejaVuSans-30" x="179.199219"/>
      </g>
     </g>
    </g>
    <g id="ytick_2">
     <g id="line2d_5">
      <g>
       <use xlink:href="#m3b1bc19222" x="36" y="195.84" style="stroke: #000000; stroke-width: 0.8"/>
      </g>
     </g>
     <g id="text_5">
      <!-- −0.5 -->
      <g transform="translate(4.717187 199.639219)scale(0.1 -0.1)">
       <defs>
        <path id="DejaVuSans-35" d="M 691 4666 
L 3169 4666 
L 3169 4134 
L 1269 4134 
L 1269 2991 
Q 1406 3038 1543 3061 
Q 1681 3084 1819 3084 
Q 2600 3084 3056 2656 
Q 3513 2228 3513 1497 
Q 3513 744 3044 326 
Q 2575 -91 1722 -91 
Q 1428 -91 1123 -41 
Q 819 9 494 109 
L 494 744 
Q 775 591 1075 516 
Q 1375 441 1709 441 
Q 2250 441 2565 725 
Q 2881 1009 2881 1497 
Q 2881 1984 2565 2268 
Q 2250 2553 1709 2553 
Q 1456 2553 1204 2497 
Q 953 2441 691 2322 
L 691 4666 
z
" transform="scale(0.015625)"/>
       </defs>
       <use xlink:href="#DejaVuSans-2212"/>
       <use xlink:href="#DejaVuSans-30" x="83.789062"/>
       <use xlink:href="#DejaVuSans-2e" x="147.412109"/>
       <use xlink:href="#DejaVuSans-35" x="179.199219"/>
      </g>
     </g>
    </g>
    <g id="ytick_3">
     <g id="line2d_6">
      <g>
       <use xlink:href="#m3b1bc19222" x="36" y="145.44" style="stroke: #000000; stroke-width: 0.8"/>
      </g>
     </g>
     <g id="text_6">
      <!-- 0.0 -->
      <g transform="translate(13.096875 149.239219)scale(0.1 -0.1)">
       <use xlink:href="#DejaVuSans-30"/>
       <use xlink:href="#DejaVuSans-2e" x="63.623047"/>
       <use xlink:href="#DejaVuSans-30" x="95.410156"/>
      </g>
     </g>
    </g>
    <g id="ytick_4">
     <g id="line2d_7">
      <g>
       <use xlink:href="#m3b1bc19222" x="36" y="95.04" style="stroke: #000000; stroke-width: 0.8"/>
      </g>
     </g>
     <g id="text_7">
      <!-- 0.5 -->
      <g transform="translate(13.096875 98.839219)scale(0.1 -0.1)">
       <use xlink:href="#DejaVuSans-30"/>
       <use xlink:href="#DejaVuSans-2e" x="63.623047"/>
       <use xlink:href="#DejaVuSans-35" x="95.410156"/>
      </g>
     </g>
    </g>
    <g id="ytick_5">
     <g id="line2d_8">
      <g>
       <use xlink:href="#m3b1bc19222" x="36" y="44.64" style="stroke: #000000; stroke-width: 0.8"/>
      </g>
     </g>
     <g id="text_8">
      <!-- 1.0 -->
      <g transform="translate(13.096875 48.439219)scale(0.1 -0.1)">
       <use xlink:href="#DejaVuSans-31"/>
       <use xlink:href="#DejaVuSans-2e" x="63.623047"/>
       <use xlink:href="#DejaVuSans-30" x="95.410156"/>
      </g>
     </g>
    </g>
   </g>
   <g id="line2d_9">
    <path d="M 36 246.24 
L 41.723077 241.070769 
L 47.446154 235.901538 
L 53.169231 230.732308 
L 58.892308 225.563077 
L 64.615385 220.393846 
L 70.338462 215.224615 
L 76.061538 210.055385 
L 81.784615 204.886154 
L 87.507692 199.716923 
L 93.230769 194.547692 
L 98.953846 189.378462 
L 104.676923 184.209231 
L 110.4 179.04 
L 116.123077 173.870769 
L 121.846154 168.701538 
L 127.569231 163.532308 
L 133.292308 158.363077 
L 139.015385 153.193846 
L 144.738462 148.024615 
L 150.461538 142.855385 
L 156.184615 137.686154 
L 161.907692 132.516923 
L 167.630769 127.347692 
L 173.353846 122.178462 
L 179.076923 117.009231 
L 184.8 111.84 
L 190.523077 106.670769 
L 196.246154 101.501538 
L 201.969231 96.332308 
L 207.692308 91.163077 
L 213.415385 85.993846 
L 219.138462 80.824615 
L 224.861538 75.655385 
L 230.584615 70.486154 
L 236.307692 65.316923 
L 242.030769 60.147692 
L 247.753846 54.978462 
L 253.476923 49.809231 
L 259.2 44.64 
" clip-path="url(#p961bf27e71)" style="fill: none; stroke: #1f77b4; stroke-width: 1.5; stroke-linecap: square"/>
   </g>
   <g id="line2d_10">
    <path d="M 36 44.64 
L 41.723077 54.713373 
L 47.446154 64.256568 
L 53.169231 73.269586 
L 58.892308 81.752426 
L 64.615385 89.705089 
L 70.338462 97.127574 
L 76.061538 104.019882 
L 81.784615 110.382012 
L 87.507692 116.213964 
L 93.230769 121.51574 
L 98.953846 126.287337 
L 104.676923 130.528757 
L 110.4 134.24 
L 116.123077 137.421065 
L 121.846154 140.071953 
L 127.569231 142.192663 
L 133.292308 143.783195 
L 139.015385 144.84355 
L 144.738462 145.373728 
L 150.461538 145.373728 
L 156.184615 144.84355 
L 161.907692 143.783195 
L 167.630769 142.192663 
L 173.353846 140.071953 
L 179.076923 137.421065 
L 184.8 134.24 
L 190.523077 130.528757 
L 196.246154 126.287337 
L 201.969231 121.51574 
L 207.692308 116.213964 
L 213.415385 110.382012 
L 219.138462 104.019882 
L 224.861538 97.127574 
L 230.584615 89.705089 
L 236.307692 81.752426 
L 242.030769 73.269586 
L 247.753846 64.256568 
L 253.476923 54.713373 
L 259.2 44.64 
" clip-path="url(#p961bf27e71)" style="fill: none; stroke: #ff7f0e; stroke-width: 1.5; stroke-linecap: square"/>
   </g>
   <g id="line2d_11">
    <path d="M 36 246.24 
L 41.723077 231.51398 
L 47.446154 218.296926 
L 53.169231 206.507274 
L 58.892308 196.063456 
L 64.615385 186.883908 
L 70.338462 178.887064 
L 76.061538 171.991358 
L 81.784615 166.115224 
L 87.507692 161.177096 
L 93.230769 157.095409 
L 98.953846 153.788597 
L 104.676923 151.175093 
L 110.4 149.173333 
L 116.123077 147.701751 
L 121.846154 146.67878 
L 127.569231 146.022855 
L 133.292308 145.652411 
L 139.015385 145.485881 
L 144.738462 145.441699 
L 150.461538 145.438301 
L 156.184615 145.394119 
L 161.907692 145.227589 
L 167.630769 144.857145 
L 173.353846 144.20122 
L 179.076923 143.178249 
L 184.8 141.706667 
L 190.523077 139.704907 
L 196.246154 137.091403 
L 201.969231 133.784591 
L 207.692308 129.702904 
L 213.415385 124.764776 
L 219.138462 118.888642 
L 224.861538 111.992936 
L 230.584615 103.996092 
L 236.307692 94.816544 
L 242.030769 84.372726 
L 247.753846 72.583074 
L 253.476923 59.36602 
L 259.2 44.64 
" clip-path="url(#p961bf27e71)" style="fill: none; stroke: #2ca02c; stroke-width: 1.5; stroke-linecap: square"/>
   </g>
   <g id="line2d_12">
    <path d="M 36 44.64 
L 41.723077 63.780071 
L 47.446154 80.055579 
L 53.169231 93.767692 
L 58.892308 105.200842 
L 64.615385 114.622735 
L 70.338462 122.28434 
L 76.061538 128.419899 
L 81.784615 133.246919 
L 87.507692 136.966179 
L 93.230769 139.761724 
L 98.953846 141.800868 
L 104.676923 143.234195 
L 110.4 144.195556 
L 116.123077 144.80207 
L 121.846154 145.154128 
L 127.569231 145.335385 
L 133.292308 145.412768 
L 139.015385 145.436471 
L 144.738462 145.439956 
L 150.461538 145.439956 
L 156.184615 145.436471 
L 161.907692 145.412768 
L 167.630769 145.335385 
L 173.353846 145.154128 
L 179.076923 144.80207 
L 184.8 144.195556 
L 190.523077 143.234195 
L 196.246154 141.800868 
L 201.969231 139.761724 
L 207.692308 136.966179 
L 213.415385 133.246919 
L 219.138462 128.419899 
L 224.861538 122.28434 
L 230.584615 114.622735 
L 236.307692 105.200842 
L 242.030769 93.767692 
L 247.753846 80.055579 
L 253.476923 63.780071 
L 259.2 44.64 
" clip-path="url(#p961bf27e71)" style="fill: none; stroke: #d62728; stroke-width: 1.5; stroke-linecap: square"/>
   </g>
   <g id="line2d_13">
    <path d="M 36 246.24 
L 41.723077 222.912241 
L 47.446154 204.118326 
L 53.169231 189.162722 
L 58.892308 177.424971 
L 64.615385 168.355402 
L 70.338462 161.470841 
L 76.061538 156.350321 
L 81.784615 152.630791 
L 87.507692 150.002827 
L 93.230769 148.20634 
L 98.953846 147.026288 
L 104.676923 146.288387 
L 110.4 145.854815 
L 116.123077 145.619929 
L 121.846154 145.505971 
L 127.569231 145.458777 
L 133.292308 145.443491 
L 139.015385 145.440271 
L 144.738462 145.440001 
L 150.461538 145.439999 
L 156.184615 145.439729 
L 161.907692 145.436509 
L 167.630769 145.421223 
L 173.353846 145.374029 
L 179.076923 145.260071 
L 184.8 145.025185 
L 190.523077 144.591613 
L 196.246154 143.853712 
L 201.969231 142.67366 
L 207.692308 140.877173 
L 213.415385 138.249209 
L 219.138462 134.529679 
L 224.861538 129.409159 
L 230.584615 122.524598 
L 236.307692 113.455029 
L 242.030769 101.717278 
L 247.753846 86.761674 
L 253.476923 67.967759 
L 259.2 44.64 
" clip-path="url(#p961bf27e71)" style="fill: none; stroke: #9467bd; stroke-width: 1.5; stroke-linecap: square"/>
   </g>
   <g id="line2d_14">
    <path d="M 36 44.64 
L 41.723077 71.940695 
L 47.446154 92.779963 
L 53.169231 108.44385 
L 58.892308 120.016048 
L 64.615385 128.400342 
L 70.338462 134.341725 
L 76.061538 138.446204 
L 81.784615 141.199277 
L 87.507692 142.983093 
L 93.230769 144.092296 
L 98.953846 144.748541 
L 104.676923 145.113697 
L 110.4 145.301728 
L 116.123077 145.389251 
L 121.846154 145.424776 
L 127.569231 145.43663 
L 133.292308 145.439552 
L 139.015385 145.439979 
L 144.738462 145.44 
L 150.461538 145.44 
L 156.184615 145.439979 
L 161.907692 145.439552 
L 167.630769 145.43663 
L 173.353846 145.424776 
L 179.076923 145.389251 
L 184.8 145.301728 
L 190.523077 145.113697 
L 196.246154 144.748541 
L 201.969231 144.092296 
L 207.692308 142.983093 
L 213.415385 141.199277 
L 219.138462 138.446204 
L 224.861538 134.341725 
L 230.584615 128.400342 
L 236.307692 120.016048 
L 242.030769 108.44385 
L 247.753846 92.779963 
L 253.476923 71.940695 
L 259.2 44.64 
" clip-path="url(#p961bf27e71)" style="fill: none; stroke: #8c564b; stroke-width: 1.5; stroke-linecap: square"/>
   </g>
   <g id="line2d_15">
    <path d="M 36 246.24 
L 41.723077 215.17011 
L 47.446154 192.699007 
L 53.169231 176.744434 
L 58.892308 165.648782 
L 64.615385 158.110515 
L 70.338462 153.123421 
L 76.061538 149.923202 
L 81.784615 147.940939 
L 87.507692 146.76295 
L 93.230769 146.096574 
L 98.953846 145.741405 
L 104.676923 145.565501 
L 110.4 145.486091 
L 116.123077 145.454314 
L 121.846154 145.443513 
L 127.569231 145.440605 
L 133.292308 145.440057 
L 139.015385 145.440002 
L 144.738462 145.44 
L 150.461538 145.44 
L 156.184615 145.439998 
L 161.907692 145.439943 
L 167.630769 145.439395 
L 173.353846 145.436487 
L 179.076923 145.425686 
L 184.8 145.393909 
L 190.523077 145.314499 
L 196.246154 145.138595 
L 201.969231 144.783426 
L 207.692308 144.11705 
L 213.415385 142.939061 
L 219.138462 140.956798 
L 224.861538 137.756579 
L 230.584615 132.769485 
L 236.307692 125.231218 
L 242.030769 114.135566 
L 247.753846 98.180993 
L 253.476923 75.70989 
L 259.2 44.64 
" clip-path="url(#p961bf27e71)" style="fill: none; stroke: #e377c2; stroke-width: 1.5; stroke-linecap: square"/>
   </g>
   <g id="line2d_16">
    <path d="M 36 44.64 
L 41.723077 79.285793 
L 47.446154 103.028071 
L 53.169231 118.951632 
L 58.892308 129.376609 
L 64.615385 136.018335 
L 70.338462 140.120709 
L 76.061538 142.566152 
L 81.784615 143.965087 
L 87.507692 144.727642 
L 93.230769 145.120131 
L 98.953846 145.308618 
L 104.676923 145.39173 
L 110.4 145.424636 
L 116.123077 145.435963 
L 121.846154 145.439189 
L 127.569231 145.439891 
L 133.292308 145.439993 
L 139.015385 145.44 
L 144.738462 145.44 
L 150.461538 145.44 
L 156.184615 145.44 
L 161.907692 145.439993 
L 167.630769 145.439891 
L 173.353846 145.439189 
L 179.076923 145.435963 
L 184.8 145.424636 
L 190.523077 145.39173 
L 196.246154 145.308618 
L 201.969231 145.120131 
L 207.692308 144.727642 
L 213.415385 143.965087 
L 219.138462 142.566152 
L 224.861538 140.120709 
L 230.584615 136.018335 
L 236.307692 129.376609 
L 242.030769 118.951632 
L 247.753846 103.028071 
L 253.476923 79.285793 
L 259.2 44.64 
" clip-path="url(#p961bf27e71)" style="fill: none; stroke: #7f7f7f; stroke-width: 1.5; stroke-linecap: square"/>
   </g>
   <g id="line2d_17">
    <path d="M 36 246.24 
L 41.723077 208.201684 
L 47.446154 183.501988 
L 53.169231 167.853234 
L 58.892308 158.208336 
L 64.615385 152.445853 
L 70.338462 149.122586 
L 76.061538 147.28221 
L 81.784615 146.30982 
L 87.507692 145.823577 
L 93.230769 145.595834 
L 98.953846 145.497269 
L 104.676923 145.458565 
L 110.4 145.445121 
L 116.123077 145.441139 
L 121.846154 145.440187 
L 127.569231 145.440019 
L 133.292308 145.440001 
L 139.015385 145.44 
L 144.738462 145.44 
L 150.461538 145.44 
L 156.184615 145.44 
L 161.907692 145.439999 
L 167.630769 145.439981 
L 173.353846 145.439813 
L 179.076923 145.438861 
L 184.8 145.434879 
L 190.523077 145.421435 
L 196.246154 145.382731 
L 201.969231 145.284166 
L 207.692308 145.056423 
L 213.415385 144.57018 
L 219.138462 143.59779 
L 224.861538 141.757414 
L 230.584615 138.434147 
L 236.307692 132.671664 
L 242.030769 123.026766 
L 247.753846 107.378012 
L 253.476923 82.678316 
L 259.2 44.64 
" clip-path="url(#p961bf27e71)" style="fill: none; stroke: #bcbd22; stroke-width: 1.5; stroke-linecap: square"/>
   </g>
   <g id="patch_3">
    <path d="M 36 256.32 
L 36 34.56 
" style="fill: none; stroke: #000000; stroke-width: 0.8; stroke-linejoin: miter; stroke-linecap: square"/>
   </g>
   <g id="patch_4">
    <path d="M 259.2 256.32 
L 259.2 34.56 
" style="fill: none; stroke: #000000; stroke-width: 0.8; stroke-linejoin: miter; stroke-linecap: square"/>
   </g>
   <g id="patch_5">
    <path d="M 36 256.32 
L 259.2 256.32 
" style="fill: none; stroke: #000000; stroke-width: 0.8; stroke-linejoin: miter; stroke-linecap: square"/>
   </g>
   <g id="patch_6">
    <path d="M 36 34.56 
L 259.2 34.56 
" style="fill: none; stroke: #000000; stroke-width: 0.8; stroke-linejoin: miter; stroke-linecap: square"/>
   </g>
  </g>
 </g>
 <defs>
  <clipPath id="p961bf27e71">
   <rect x="36" y="34.56" width="223.2" height="221.76"/>
  </clipPath>
 </defs>
</svg>
